<?xml version="1.0" encoding="UTF-8"?>
<svg width="66px" height="690px" viewBox="0 0 66 690" version="1.1" xmlns="http://www.w3.org/2000/svg" xmlns:xlink="http://www.w3.org/1999/xlink">
    <!-- Generator: Sketch 63.1 (92452) - https://sketch.com -->
    <title>mask-background-1200-690-right</title>
    <desc>Created with Sketch.</desc>
    <defs>
        <path d="M-1042.97784,20 L-25.0221632,20 C-10.7578634,20 -5.58528356,21.4852098 -0.370468743,24.2741233 C4.84434607,27.0630367 8.93696326,31.1556539 11.7258767,36.3704687 C14.5147902,41.5852836 16,46.7578634 16,61.0221632 L16,578.977837 C16,593.242137 14.5147902,598.414716 11.7258767,603.629531 C8.93696326,608.844346 4.84434607,612.936963 -0.370468743,615.725877 C-5.58528356,618.51479 -10.7578634,620 -25.0221632,620 L-1042.97784,620 C-1057.24214,620 -1062.41472,618.51479 -1067.62953,615.725877 C-1072.84435,612.936963 -1076.93696,608.844346 -1079.72588,603.629531 C-1082.51479,598.414716 -1084,593.242137 -1084,578.977837 L-1084,61.0221632 C-1084,46.7578634 -1082.51479,41.5852836 -1079.72588,36.3704687 C-1076.93696,31.1556539 -1072.84435,27.0630367 -1067.62953,24.2741233 C-1062.41472,21.4852098 -1057.24214,20 -1042.97784,20 Z" id="path-1"></path>
        <filter x="-6.0%" y="-6.4%" width="111.5%" height="121.2%" filterUnits="objectBoundingBox" id="filter-2">
            <feMorphology radius="0.5" operator="dilate" in="SourceAlpha" result="shadowSpreadOuter1"></feMorphology>
            <feOffset dx="-2" dy="25" in="shadowSpreadOuter1" result="shadowOffsetOuter1"></feOffset>
            <feGaussianBlur stdDeviation="16.5" in="shadowOffsetOuter1" result="shadowBlurOuter1"></feGaussianBlur>
            <feComposite in="shadowBlurOuter1" in2="SourceAlpha" operator="out" result="shadowBlurOuter1"></feComposite>
            <feColorMatrix values="0 0 0 0 0   0 0 0 0 0   0 0 0 0 0  0 0 0 0.122707201 0" type="matrix" in="shadowBlurOuter1" result="shadowMatrixOuter1"></feColorMatrix>
            <feOffset dx="0" dy="1" in="SourceAlpha" result="shadowOffsetOuter2"></feOffset>
            <feGaussianBlur stdDeviation="3.5" in="shadowOffsetOuter2" result="shadowBlurOuter2"></feGaussianBlur>
            <feComposite in="shadowBlurOuter2" in2="SourceAlpha" operator="out" result="shadowBlurOuter2"></feComposite>
            <feColorMatrix values="0 0 0 0 0   0 0 0 0 0   0 0 0 0 0  0 0 0 0.138898324 0" type="matrix" in="shadowBlurOuter2" result="shadowMatrixOuter2"></feColorMatrix>
            <feMerge>
                <feMergeNode in="shadowMatrixOuter1"></feMergeNode>
                <feMergeNode in="shadowMatrixOuter2"></feMergeNode>
            </feMerge>
        </filter>
    </defs>
    <g id="mask-background-1200-690-right" stroke="none" stroke-width="1" fill="none" fill-rule="evenodd">
        <path d="M66,0 L66,690 L-1134,690 L-1134,0 L66,0 Z M-24.4163758,20.0009088 L-1043.58362,20.0009088 C-1057.38993,20.0427006 -1062.48921,21.5250514 -1067.62953,24.2741233 C-1072.84435,27.0630367 -1076.93696,31.1556539 -1079.72588,36.3704687 C-1082.51479,41.5852836 -1084,46.7578634 -1084,61.0221632 L-1083.99909,579.583624 C-1083.9573,593.389933 -1082.47495,598.489214 -1079.72588,603.629531 C-1076.93696,608.844346 -1072.84435,612.936963 -1067.62953,615.725877 C-1062.41472,618.51479 -1057.24214,620 -1042.97784,620 L-1042.97784,620 L-25.0221632,620 C-10.7578634,620 -5.58528356,618.51479 -0.370468743,615.725877 C4.84434607,612.936963 8.93696326,608.844346 11.7258767,603.629531 C14.5147902,598.414716 16,593.242137 16,578.977837 L16,578.977837 L16,61.0221632 C16,46.7578634 14.5147902,41.5852836 11.7258767,36.3704687 C8.93696326,31.1556539 4.84434607,27.0630367 -0.370468743,24.2741233 C-5.58528356,21.4852098 -10.7578634,20 -25.0221632,20 Z" id="background" fill="#FFF0F7"></path>
        <g id="window">
            <use fill="black" fill-opacity="1" filter="url(#filter-2)" xlink:href="#path-1"></use>
            <use fill-opacity="0" fill="#FFFFFF" fill-rule="evenodd" xlink:href="#path-1"></use>
        </g>
    </g>
</svg>