<?xml version="1.0" encoding="UTF-8"?>
<svg width="1200px" height="86px" viewBox="0 0 1200 86" version="1.1" xmlns="http://www.w3.org/2000/svg" xmlns:xlink="http://www.w3.org/1999/xlink">
    <!-- Generator: Sketch 63.1 (92452) - https://sketch.com -->
    <title>mask-background-1200-690-bottom</title>
    <desc>Created with Sketch.</desc>
    <defs>
        <path d="M91.0221632,-584 L1108.97784,-584 C1123.24214,-584 1128.41472,-582.51479 1133.62953,-579.725877 C1138.84435,-576.936963 1142.93696,-572.844346 1145.72588,-567.629531 C1148.51479,-562.414716 1150,-557.242137 1150,-542.977837 L1150,-25.0221632 C1150,-10.7578634 1148.51479,-5.58528356 1145.72588,-0.370468743 C1142.93696,4.84434607 1138.84435,8.93696326 1133.62953,11.7258767 C1128.41472,14.5147902 1123.24214,16 1108.97784,16 L91.0221632,16 C76.7578634,16 71.5852836,14.5147902 66.3704687,11.7258767 C61.1556539,8.93696326 57.0630367,4.84434607 54.2741233,-0.370468743 C51.4852098,-5.58528356 50,-10.7578634 50,-25.0221632 L50,-542.977837 C50,-557.242137 51.4852098,-562.414716 54.2741233,-567.629531 C57.0630367,-572.844346 61.1556539,-576.936963 66.3704687,-579.725877 C71.5852836,-582.51479 76.7578634,-584 91.0221632,-584 Z" id="path-1"></path>
        <filter x="-6.0%" y="-6.4%" width="111.5%" height="121.2%" filterUnits="objectBoundingBox" id="filter-2">
            <feMorphology radius="0.5" operator="dilate" in="SourceAlpha" result="shadowSpreadOuter1"></feMorphology>
            <feOffset dx="-2" dy="25" in="shadowSpreadOuter1" result="shadowOffsetOuter1"></feOffset>
            <feGaussianBlur stdDeviation="16.5" in="shadowOffsetOuter1" result="shadowBlurOuter1"></feGaussianBlur>
            <feComposite in="shadowBlurOuter1" in2="SourceAlpha" operator="out" result="shadowBlurOuter1"></feComposite>
            <feColorMatrix values="0 0 0 0 0   0 0 0 0 0   0 0 0 0 0  0 0 0 0.122707201 0" type="matrix" in="shadowBlurOuter1" result="shadowMatrixOuter1"></feColorMatrix>
            <feOffset dx="0" dy="1" in="SourceAlpha" result="shadowOffsetOuter2"></feOffset>
            <feGaussianBlur stdDeviation="3.5" in="shadowOffsetOuter2" result="shadowBlurOuter2"></feGaussianBlur>
            <feComposite in="shadowBlurOuter2" in2="SourceAlpha" operator="out" result="shadowBlurOuter2"></feComposite>
            <feColorMatrix values="0 0 0 0 0   0 0 0 0 0   0 0 0 0 0  0 0 0 0.138898324 0" type="matrix" in="shadowBlurOuter2" result="shadowMatrixOuter2"></feColorMatrix>
            <feMerge>
                <feMergeNode in="shadowMatrixOuter1"></feMergeNode>
                <feMergeNode in="shadowMatrixOuter2"></feMergeNode>
            </feMerge>
        </filter>
    </defs>
    <g id="mask-background-1200-690-bottom" stroke="none" stroke-width="1" fill="none" fill-rule="evenodd">
        <path d="M1200,-604 L1200,86 L0,86 L0,-604 L1200,-604 Z M1109.58362,-583.999091 L90.4163758,-583.999091 C76.6100667,-583.957299 71.5107862,-582.474949 66.3704687,-579.725877 C61.1556539,-576.936963 57.0630367,-572.844346 54.2741233,-567.629531 C51.4852098,-562.414716 50,-557.242137 50,-542.977837 L50.0009088,-24.4163758 C50.0427006,-10.6100667 51.5250514,-5.5107862 54.2741233,-0.370468743 C57.0630367,4.84434607 61.1556539,8.93696326 66.3704687,11.7258767 C71.5852836,14.5147902 76.7578634,16 91.0221632,16 L91.0221632,16 L1108.97784,16 C1123.24214,16 1128.41472,14.5147902 1133.62953,11.7258767 C1138.84435,8.93696326 1142.93696,4.84434607 1145.72588,-0.370468743 C1148.51479,-5.58528356 1150,-10.7578634 1150,-25.0221632 L1150,-25.0221632 L1150,-542.977837 C1150,-557.242137 1148.51479,-562.414716 1145.72588,-567.629531 C1142.93696,-572.844346 1138.84435,-576.936963 1133.62953,-579.725877 C1128.41472,-582.51479 1123.24214,-584 1108.97784,-584 Z" id="background" fill="#FFF0F7"></path>
        <g id="window">
            <use fill="black" fill-opacity="1" filter="url(#filter-2)" xlink:href="#path-1"></use>
            <use fill-opacity="0" fill="#FFFFFF" fill-rule="evenodd" xlink:href="#path-1"></use>
        </g>
    </g>
</svg>